<?xml version="1.0" encoding="UTF-8" standalone="no"?>
<!DOCTYPE svg PUBLIC "-//W3C//DTD SVG 1.1//EN"
 "http://www.w3.org/Graphics/SVG/1.1/DTD/svg11.dtd">
<!-- Generated by graphviz version 2.44.0 (0)
 -->
<!-- Title: workflow Pages: 1 -->
<svg width="832pt" height="666pt"
 viewBox="0.00 0.00 832.00 665.75" xmlns="http://www.w3.org/2000/svg" xmlns:xlink="http://www.w3.org/1999/xlink">
<g id="graph0" class="graph" transform="scale(1 1) rotate(0) translate(4 661.75)">
<title>workflow</title>
<polygon fill="white" stroke="transparent" points="-4,4 -4,-661.75 828,-661.75 828,4 -4,4"/>
<!-- gene_info -->
<g id="node1" class="node">
<title>gene_info</title>
<path fill="lightcyan" stroke="black" d="M189.5,-653.4C189.5,-655.73 170.9,-657.63 148,-657.63 125.1,-657.63 106.5,-655.73 106.5,-653.4 106.5,-653.4 106.5,-615.35 106.5,-615.35 106.5,-613.02 125.1,-611.12 148,-611.12 170.9,-611.12 189.5,-613.02 189.5,-615.35 189.5,-615.35 189.5,-653.4 189.5,-653.4"/>
<path fill="none" stroke="black" d="M189.5,-653.4C189.5,-651.07 170.9,-649.17 148,-649.17 125.1,-649.17 106.5,-651.07 106.5,-653.4"/>
<text text-anchor="middle" x="148" y="-637.77" font-family="Helvetica" font-size="12.00">Entrez Gene</text>
<text text-anchor="middle" x="148" y="-624.77" font-family="Helvetica" font-size="12.00">gene_info</text>
</g>
<!-- gene_synonyms -->
<g id="node4" class="node">
<title>gene_synonyms</title>
<polygon fill="lightgray" stroke="black" points="0,-223.5 0,-265.5 296,-265.5 296,-223.5 0,-223.5"/>
<text text-anchor="middle" x="148" y="-251.9" font-family="Helvetica" font-size="12.00">gene_synonyms</text>
<polyline fill="none" stroke="black" points="0,-244.5 296,-244.5 "/>
<text text-anchor="middle" x="24.5" y="-230.9" font-family="Helvetica" font-size="12.00">tax_id</text>
<polyline fill="none" stroke="black" points="49,-223.5 49,-244.5 "/>
<text text-anchor="middle" x="79" y="-230.9" font-family="Helvetica" font-size="12.00">gene_id</text>
<polyline fill="none" stroke="black" points="109,-223.5 109,-244.5 "/>
<text text-anchor="middle" x="153.5" y="-230.9" font-family="Helvetica" font-size="12.00">gene_symbol</text>
<polyline fill="none" stroke="black" points="198,-223.5 198,-244.5 "/>
<text text-anchor="middle" x="247" y="-230.9" font-family="Helvetica" font-size="12.00">gene_synonym</text>
</g>
<!-- gene_info&#45;&gt;gene_synonyms -->
<g id="edge1" class="edge">
<title>gene_info&#45;&gt;gene_synonyms</title>
<path fill="none" stroke="black" d="M148,-610.86C148,-610.86 148,-275.63 148,-275.63"/>
<polygon fill="black" stroke="black" points="151.5,-275.63 148,-265.63 144.5,-275.63 151.5,-275.63"/>
</g>
<!-- jaspar_data -->
<g id="node2" class="node">
<title>jaspar_data</title>
<path fill="lightcyan" stroke="black" d="M608,-653.4C608,-655.73 586.04,-657.63 559,-657.63 531.96,-657.63 510,-655.73 510,-653.4 510,-653.4 510,-615.35 510,-615.35 510,-613.02 531.96,-611.12 559,-611.12 586.04,-611.12 608,-613.02 608,-615.35 608,-615.35 608,-653.4 608,-653.4"/>
<path fill="none" stroke="black" d="M608,-653.4C608,-651.07 586.04,-649.17 559,-649.17 531.96,-649.17 510,-651.07 510,-653.4"/>
<text text-anchor="middle" x="559" y="-637.77" font-family="Helvetica" font-size="12.00">JASPAR</text>
<text text-anchor="middle" x="559" y="-624.77" font-family="Helvetica" font-size="12.00">database.tar.gz</text>
</g>
<!-- jaspar_profiles -->
<g id="node5" class="node">
<title>jaspar_profiles</title>
<polygon fill="lightgray" stroke="black" points="550,-453.5 550,-495.5 824,-495.5 824,-453.5 550,-453.5"/>
<text text-anchor="middle" x="687" y="-481.9" font-family="Helvetica" font-size="12.00">jaspar_profiles</text>
<polyline fill="none" stroke="black" points="550,-474.5 824,-474.5 "/>
<text text-anchor="middle" x="583" y="-460.9" font-family="Helvetica" font-size="12.00">profile_id</text>
<polyline fill="none" stroke="black" points="616,-453.5 616,-474.5 "/>
<text text-anchor="middle" x="649" y="-460.9" font-family="Helvetica" font-size="12.00">jaspar_id</text>
<polyline fill="none" stroke="black" points="682,-453.5 682,-474.5 "/>
<text text-anchor="middle" x="729.5" y="-460.9" font-family="Helvetica" font-size="12.00">jaspar_version</text>
<polyline fill="none" stroke="black" points="777,-453.5 777,-474.5 "/>
<text text-anchor="middle" x="800.5" y="-460.9" font-family="Helvetica" font-size="12.00">name</text>
</g>
<!-- jaspar_data&#45;&gt;jaspar_profiles -->
<g id="edge4" class="edge">
<title>jaspar_data&#45;&gt;jaspar_profiles</title>
<path fill="none" stroke="black" d="M579,-610.78C579,-610.78 579,-505.63 579,-505.63"/>
<polygon fill="black" stroke="black" points="582.5,-505.63 579,-495.63 575.5,-505.63 582.5,-505.63"/>
</g>
<!-- jaspar_proteins -->
<g id="node6" class="node">
<title>jaspar_proteins</title>
<polygon fill="lightgray" stroke="black" points="452.5,-374.5 452.5,-416.5 591.5,-416.5 591.5,-374.5 452.5,-374.5"/>
<text text-anchor="middle" x="522" y="-402.9" font-family="Helvetica" font-size="12.00">jaspar_proteins</text>
<polyline fill="none" stroke="black" points="452.5,-395.5 591.5,-395.5 "/>
<text text-anchor="middle" x="485.5" y="-381.9" font-family="Helvetica" font-size="12.00">profile_id</text>
<polyline fill="none" stroke="black" points="518.5,-374.5 518.5,-395.5 "/>
<text text-anchor="middle" x="555" y="-381.9" font-family="Helvetica" font-size="12.00">uniprot_ac</text>
</g>
<!-- jaspar_data&#45;&gt;jaspar_proteins -->
<g id="edge5" class="edge">
<title>jaspar_data&#45;&gt;jaspar_proteins</title>
<path fill="none" stroke="black" d="M530,-611.04C530,-611.04 530,-426.52 530,-426.52"/>
<polygon fill="black" stroke="black" points="533.5,-426.52 530,-416.52 526.5,-426.52 533.5,-426.52"/>
</g>
<!-- uniprot_sprot -->
<g id="node3" class="node">
<title>uniprot_sprot</title>
<path fill="lightcyan" stroke="black" d="M425,-653.4C425,-655.73 405.73,-657.63 382,-657.63 358.27,-657.63 339,-655.73 339,-653.4 339,-653.4 339,-615.35 339,-615.35 339,-613.02 358.27,-611.12 382,-611.12 405.73,-611.12 425,-613.02 425,-615.35 425,-615.35 425,-653.4 425,-653.4"/>
<path fill="none" stroke="black" d="M425,-653.4C425,-651.07 405.73,-649.17 382,-649.17 358.27,-649.17 339,-651.07 339,-653.4"/>
<text text-anchor="middle" x="382" y="-637.77" font-family="Helvetica" font-size="12.00">UniProt</text>
<text text-anchor="middle" x="382" y="-624.77" font-family="Helvetica" font-size="12.00">uniprot_sprot</text>
</g>
<!-- uniprot_accessions -->
<g id="node10" class="node">
<title>uniprot_accessions</title>
<polygon fill="lightgray" stroke="black" points="193.5,-532.5 193.5,-574.5 336.5,-574.5 336.5,-532.5 193.5,-532.5"/>
<text text-anchor="middle" x="265" y="-560.9" font-family="Helvetica" font-size="12.00">uniprot_accessions</text>
<polyline fill="none" stroke="black" points="193.5,-553.5 336.5,-553.5 "/>
<text text-anchor="middle" x="228.5" y="-539.9" font-family="Helvetica" font-size="12.00">uniprot_id</text>
<polyline fill="none" stroke="black" points="263.5,-532.5 263.5,-553.5 "/>
<text text-anchor="middle" x="300" y="-539.9" font-family="Helvetica" font-size="12.00">uniprot_ac</text>
</g>
<!-- uniprot_sprot&#45;&gt;uniprot_accessions -->
<g id="edge2" class="edge">
<title>uniprot_sprot&#45;&gt;uniprot_accessions</title>
<path fill="none" stroke="black" d="M347,-612.14C347,-588.05 347,-553 347,-553 347,-553 345.96,-553 345.96,-553"/>
<polygon fill="black" stroke="black" points="346.61,-549.5 336.61,-553 346.61,-556.5 346.61,-549.5"/>
</g>
<!-- uniprot_genes -->
<g id="node11" class="node">
<title>uniprot_genes</title>
<polygon fill="lightgray" stroke="black" points="355,-532.5 355,-574.5 485,-574.5 485,-532.5 355,-532.5"/>
<text text-anchor="middle" x="420" y="-560.9" font-family="Helvetica" font-size="12.00">uniprot_genes</text>
<polyline fill="none" stroke="black" points="355,-553.5 485,-553.5 "/>
<text text-anchor="middle" x="390" y="-539.9" font-family="Helvetica" font-size="12.00">uniprot_id</text>
<polyline fill="none" stroke="black" points="425,-532.5 425,-553.5 "/>
<text text-anchor="middle" x="455" y="-539.9" font-family="Helvetica" font-size="12.00">gene_id</text>
</g>
<!-- uniprot_sprot&#45;&gt;uniprot_genes -->
<g id="edge3" class="edge">
<title>uniprot_sprot&#45;&gt;uniprot_genes</title>
<path fill="none" stroke="black" d="M390,-610.98C390,-610.98 390,-584.63 390,-584.63"/>
<polygon fill="black" stroke="black" points="393.5,-584.63 390,-574.63 386.5,-584.63 393.5,-584.63"/>
</g>
<!-- map_profiles_to_synonyms -->
<g id="node19" class="node">
<title>map_profiles_to_synonyms</title>
<ellipse fill="white" stroke="black" cx="148" cy="-169" rx="93.64" ry="18"/>
<text text-anchor="middle" x="148" y="-165.9" font-family="Helvetica" font-size="12.00">map profiles to synonyms</text>
</g>
<!-- gene_synonyms&#45;&gt;map_profiles_to_synonyms -->
<g id="edge15" class="edge">
<title>gene_synonyms&#45;&gt;map_profiles_to_synonyms</title>
<path fill="none" stroke="black" d="M116.81,-223.47C116.81,-223.47 116.81,-196.35 116.81,-196.35"/>
<polygon fill="black" stroke="black" points="120.31,-196.35 116.81,-186.35 113.31,-196.35 120.31,-196.35"/>
</g>
<!-- filter_genes_for_profiles -->
<g id="node20" class="node">
<title>filter_genes_for_profiles</title>
<ellipse fill="white" stroke="black" cx="345" cy="-169" rx="82.48" ry="18"/>
<text text-anchor="middle" x="345" y="-165.9" font-family="Helvetica" font-size="12.00">filter genes for profiles</text>
</g>
<!-- gene_synonyms&#45;&gt;filter_genes_for_profiles -->
<g id="edge12" class="edge">
<title>gene_synonyms&#45;&gt;filter_genes_for_profiles</title>
<path fill="none" stroke="black" d="M279.26,-223.47C279.26,-223.47 279.26,-189.92 279.26,-189.92"/>
<polygon fill="black" stroke="black" points="282.76,-189.92 279.26,-179.92 275.76,-189.92 282.76,-189.92"/>
</g>
<!-- profiles_jaspar -->
<g id="node16" class="node">
<title>profiles_jaspar</title>
<polygon fill="lightcyan" stroke="black" points="737,-36 637,-36 637,0 737,0 737,-36"/>
<text text-anchor="middle" x="687" y="-21.4" font-family="Helvetica" font-size="12.00">Profiles</text>
<text text-anchor="middle" x="687" y="-8.4" font-family="Helvetica" font-size="12.00">(profiles.jaspar)</text>
</g>
<!-- jaspar_profiles&#45;&gt;profiles_jaspar -->
<g id="edge21" class="edge">
<title>jaspar_profiles&#45;&gt;profiles_jaspar</title>
<path fill="none" stroke="black" d="M687,-453.4C687,-453.4 687,-46.33 687,-46.33"/>
<polygon fill="black" stroke="black" points="690.5,-46.33 687,-36.33 683.5,-46.33 690.5,-46.33"/>
</g>
<!-- map_profiles_to_genes -->
<g id="node18" class="node">
<title>map_profiles_to_genes</title>
<ellipse fill="white" stroke="black" cx="377" cy="-320" rx="80.78" ry="18"/>
<text text-anchor="middle" x="377" y="-316.9" font-family="Helvetica" font-size="12.00">map profiles to genes</text>
</g>
<!-- jaspar_proteins&#45;&gt;map_profiles_to_genes -->
<g id="edge9" class="edge">
<title>jaspar_proteins&#45;&gt;map_profiles_to_genes</title>
<path fill="none" stroke="black" d="M452.2,-395C446.86,-395 443.5,-395 443.5,-395 443.5,-395 443.5,-340.43 443.5,-340.43"/>
<polygon fill="black" stroke="black" points="447,-340.43 443.5,-330.43 440,-340.43 447,-340.43"/>
</g>
<!-- profile_gene_info -->
<g id="node7" class="node">
<title>profile_gene_info</title>
<polygon fill="lightgray" stroke="black" points="246,-72.5 246,-114.5 444,-114.5 444,-72.5 246,-72.5"/>
<text text-anchor="middle" x="345" y="-100.9" font-family="Helvetica" font-size="12.00">profile_gene_info</text>
<polyline fill="none" stroke="black" points="246,-93.5 444,-93.5 "/>
<text text-anchor="middle" x="276" y="-79.9" font-family="Helvetica" font-size="12.00">gene_id</text>
<polyline fill="none" stroke="black" points="306,-72.5 306,-93.5 "/>
<text text-anchor="middle" x="330.5" y="-79.9" font-family="Helvetica" font-size="12.00">tax_id</text>
<polyline fill="none" stroke="black" points="355,-72.5 355,-93.5 "/>
<text text-anchor="middle" x="399.5" y="-79.9" font-family="Helvetica" font-size="12.00">gene_symbol</text>
</g>
<!-- genes_jaspar -->
<g id="node13" class="node">
<title>genes_jaspar</title>
<polygon fill="lightcyan" stroke="black" points="388.5,-36 295.5,-36 295.5,0 388.5,0 388.5,-36"/>
<text text-anchor="middle" x="342" y="-21.4" font-family="Helvetica" font-size="12.00">Gene details</text>
<text text-anchor="middle" x="342" y="-8.4" font-family="Helvetica" font-size="12.00">(genes.jaspar)</text>
</g>
<!-- profile_gene_info&#45;&gt;genes_jaspar -->
<g id="edge18" class="edge">
<title>profile_gene_info&#45;&gt;genes_jaspar</title>
<path fill="none" stroke="black" d="M342,-72.47C342,-72.47 342,-46.1 342,-46.1"/>
<polygon fill="black" stroke="black" points="345.5,-46.1 342,-36.1 338.5,-46.1 345.5,-46.1"/>
</g>
<!-- profile_gene_synonyms -->
<g id="node8" class="node">
<title>profile_gene_synonyms</title>
<polygon fill="lightgray" stroke="black" points="64,-72.5 64,-114.5 228,-114.5 228,-72.5 64,-72.5"/>
<text text-anchor="middle" x="146" y="-100.9" font-family="Helvetica" font-size="12.00">profile_gene_synonyms</text>
<polyline fill="none" stroke="black" points="64,-93.5 228,-93.5 "/>
<text text-anchor="middle" x="97" y="-79.9" font-family="Helvetica" font-size="12.00">profile_id</text>
<polyline fill="none" stroke="black" points="130,-72.5 130,-93.5 "/>
<text text-anchor="middle" x="179" y="-79.9" font-family="Helvetica" font-size="12.00">gene_synonym</text>
</g>
<!-- synonyms_jaspar -->
<g id="node14" class="node">
<title>synonyms_jaspar</title>
<polygon fill="lightcyan" stroke="black" points="203,-36 89,-36 89,0 203,0 203,-36"/>
<text text-anchor="middle" x="146" y="-21.4" font-family="Helvetica" font-size="12.00">Profile synonyms</text>
<text text-anchor="middle" x="146" y="-8.4" font-family="Helvetica" font-size="12.00">(synonyms.jaspar)</text>
</g>
<!-- profile_gene_synonyms&#45;&gt;synonyms_jaspar -->
<g id="edge19" class="edge">
<title>profile_gene_synonyms&#45;&gt;synonyms_jaspar</title>
<path fill="none" stroke="black" d="M146,-72.47C146,-72.47 146,-46.1 146,-46.1"/>
<polygon fill="black" stroke="black" points="149.5,-46.1 146,-36.1 142.5,-46.1 149.5,-46.1"/>
</g>
<!-- profile_genes -->
<g id="node9" class="node">
<title>profile_genes</title>
<polygon fill="lightgray" stroke="black" points="314,-223.5 314,-265.5 440,-265.5 440,-223.5 314,-223.5"/>
<text text-anchor="middle" x="377" y="-251.9" font-family="Helvetica" font-size="12.00">profile_genes</text>
<polyline fill="none" stroke="black" points="314,-244.5 440,-244.5 "/>
<text text-anchor="middle" x="347" y="-230.9" font-family="Helvetica" font-size="12.00">profile_id</text>
<polyline fill="none" stroke="black" points="380,-223.5 380,-244.5 "/>
<text text-anchor="middle" x="410" y="-230.9" font-family="Helvetica" font-size="12.00">gene_id</text>
</g>
<!-- profile_genes_jaspar -->
<g id="node15" class="node">
<title>profile_genes_jaspar</title>
<polygon fill="lightcyan" stroke="black" points="541,-36 407,-36 407,0 541,0 541,-36"/>
<text text-anchor="middle" x="474" y="-21.4" font-family="Helvetica" font-size="12.00">Profile&#45;gene mapping</text>
<text text-anchor="middle" x="474" y="-8.4" font-family="Helvetica" font-size="12.00">(profile_genes.jaspar)</text>
</g>
<!-- profile_genes&#45;&gt;profile_genes_jaspar -->
<g id="edge20" class="edge">
<title>profile_genes&#45;&gt;profile_genes_jaspar</title>
<path fill="none" stroke="black" d="M440.24,-244C446.63,-244 450.82,-244 450.82,-244 450.82,-244 450.82,-46.11 450.82,-46.11"/>
<polygon fill="black" stroke="black" points="454.32,-46.11 450.82,-36.11 447.32,-46.11 454.32,-46.11"/>
</g>
<!-- profile_genes&#45;&gt;map_profiles_to_synonyms -->
<g id="edge16" class="edge">
<title>profile_genes&#45;&gt;map_profiles_to_synonyms</title>
<path fill="none" stroke="black" d="M351.83,-223.36C351.83,-213.97 351.83,-205 351.83,-205 351.83,-205 179.19,-205 179.19,-205 179.19,-205 179.19,-196.16 179.19,-196.16"/>
<polygon fill="black" stroke="black" points="182.69,-196.16 179.19,-186.16 175.69,-196.16 182.69,-196.16"/>
</g>
<!-- profile_genes&#45;&gt;filter_genes_for_profiles -->
<g id="edge13" class="edge">
<title>profile_genes&#45;&gt;filter_genes_for_profiles</title>
<path fill="none" stroke="black" d="M389.66,-223.47C389.66,-223.47 389.66,-194.41 389.66,-194.41"/>
<polygon fill="black" stroke="black" points="393.16,-194.41 389.66,-184.41 386.16,-194.41 393.16,-194.41"/>
</g>
<!-- map_accessions_to_genes -->
<g id="node17" class="node">
<title>map_accessions_to_genes</title>
<ellipse fill="white" stroke="black" cx="368" cy="-474.5" rx="93.64" ry="18"/>
<text text-anchor="middle" x="368" y="-471.4" font-family="Helvetica" font-size="12.00">map accessions to genes</text>
</g>
<!-- uniprot_accessions&#45;&gt;map_accessions_to_genes -->
<g id="edge6" class="edge">
<title>uniprot_accessions&#45;&gt;map_accessions_to_genes</title>
<path fill="none" stroke="black" d="M305.47,-532.33C305.47,-532.33 305.47,-498.02 305.47,-498.02"/>
<polygon fill="black" stroke="black" points="308.97,-498.02 305.47,-488.02 301.97,-498.02 308.97,-498.02"/>
</g>
<!-- uniprot_genes&#45;&gt;map_accessions_to_genes -->
<g id="edge7" class="edge">
<title>uniprot_genes&#45;&gt;map_accessions_to_genes</title>
<path fill="none" stroke="black" d="M408.28,-532.33C408.28,-532.33 408.28,-500.97 408.28,-500.97"/>
<polygon fill="black" stroke="black" points="411.78,-500.97 408.28,-490.97 404.78,-500.97 411.78,-500.97"/>
</g>
<!-- uniprot_mapping -->
<g id="node12" class="node">
<title>uniprot_mapping</title>
<polygon fill="lightgray" stroke="black" points="301.5,-374.5 301.5,-416.5 434.5,-416.5 434.5,-374.5 301.5,-374.5"/>
<text text-anchor="middle" x="368" y="-402.9" font-family="Helvetica" font-size="12.00">uniprot_mapping</text>
<polyline fill="none" stroke="black" points="301.5,-395.5 434.5,-395.5 "/>
<text text-anchor="middle" x="338" y="-381.9" font-family="Helvetica" font-size="12.00">uniprot_ac</text>
<polyline fill="none" stroke="black" points="374.5,-374.5 374.5,-395.5 "/>
<text text-anchor="middle" x="404.5" y="-381.9" font-family="Helvetica" font-size="12.00">gene_id</text>
</g>
<!-- uniprot_mapping&#45;&gt;map_profiles_to_genes -->
<g id="edge10" class="edge">
<title>uniprot_mapping&#45;&gt;map_profiles_to_genes</title>
<path fill="none" stroke="black" d="M368,-374.47C368,-374.47 368,-348.1 368,-348.1"/>
<polygon fill="black" stroke="black" points="371.5,-348.1 368,-338.1 364.5,-348.1 371.5,-348.1"/>
</g>
<!-- map_accessions_to_genes&#45;&gt;uniprot_mapping -->
<g id="edge8" class="edge">
<title>map_accessions_to_genes&#45;&gt;uniprot_mapping</title>
<path fill="none" stroke="black" d="M368,-456.18C368,-456.18 368,-426.51 368,-426.51"/>
<polygon fill="black" stroke="black" points="371.5,-426.51 368,-416.51 364.5,-426.51 371.5,-426.51"/>
</g>
<!-- map_profiles_to_genes&#45;&gt;profile_genes -->
<g id="edge11" class="edge">
<title>map_profiles_to_genes&#45;&gt;profile_genes</title>
<path fill="none" stroke="black" d="M377,-301.72C377,-301.72 377,-275.55 377,-275.55"/>
<polygon fill="black" stroke="black" points="380.5,-275.55 377,-265.55 373.5,-275.55 380.5,-275.55"/>
</g>
<!-- map_profiles_to_synonyms&#45;&gt;profile_gene_synonyms -->
<g id="edge17" class="edge">
<title>map_profiles_to_synonyms&#45;&gt;profile_gene_synonyms</title>
<path fill="none" stroke="black" d="M146,-150.72C146,-150.72 146,-124.55 146,-124.55"/>
<polygon fill="black" stroke="black" points="149.5,-124.55 146,-114.55 142.5,-124.55 149.5,-124.55"/>
</g>
<!-- filter_genes_for_profiles&#45;&gt;profile_gene_info -->
<g id="edge14" class="edge">
<title>filter_genes_for_profiles&#45;&gt;profile_gene_info</title>
<path fill="none" stroke="black" d="M345,-150.72C345,-150.72 345,-124.55 345,-124.55"/>
<polygon fill="black" stroke="black" points="348.5,-124.55 345,-114.55 341.5,-124.55 348.5,-124.55"/>
</g>
</g>
</svg>
